=MD_                                        Wind Turbine System                                    Windturbinensystem
        =MDA                                Rotor System                                           Rotorsystem
                        =MDA10              Rotor Blades Overall                                   Rotor Blattsystem Übergeordnet
                        =MDA11              Rotor Blade System 1                                   Rotor Blattsystem 1
                        =MDA12              Rotor Blade System 2                                   Rotor Blattsystem 2
                        =MDA13              Rotor Blade System 3                                   Rotor Blattsystem 3
                        =MDA20              Rotor Hub Unit                                         Rotor Nabeneinheit
                        =MDA30              Rotor Brake System                                     Rotor Bremssystem
        =MDK                                Drive Train System                                     Antriebsstrangsystem
                        =MDK10              Rotor Bearing System                                   Rotorlagerung
                        =MDK20              Speed Conversion System                                Drehzahlwandlung
                        =MDK30              Brake System Drive Train                               Bremssystem Antriebsstrang
                        =MDK40              Torque Transmission High Speed Shaft                   Momentenübertragung schnelle Welle
                        =MDK50              Auxiliary Systems Drive Train                          Hilfssysteme Antriebsstrang
                        =MDK51              Main Gear Oil System                                   Hauptstrom-Getriebeölsystem
                        =MDK52              Offline Gear Oil System                                Nebenstrom-Getriebeölsystem
                        =MDK53              Common Oil Lubrication System Drive Train              Gemeinsames Schmierölsystem Antriebsstrang
                        =MDK54              Rotor Lock Drive Train                                 Rotorarretierung Antriebsstrang
                        =MDK55              Rotor Slewing Unit                                     Rotordrehvorrichtung
                        =MDK56              Cooling System Drive Train                             Kühlsystem Antriebsstrang
        =MDL                                Yaw System                                             Azimutsystem
                        =MDL10              Yaw Drive System                                       Azimut-Antriebssystem
                        =MDL20              Yaw Brake System                                       Azimut-Bremssystem
        =MDV                                Central Lubrication System                             Zentrales Schmiersystem
                        =MDV10              Central Lubrication System                             Zentrales Schmiersystem
        =MDX                                Central Hydraulic System                               Zentrales Hydrauliksystem
                        =MDX10              Central Hydraulic System WTG                           Zentrales Hydrauliksystem WEA
        =MDY                                Control System                                         Steuerungssystem
                        =MDY10              Turbine Control System                                 Anlagensteuerung
                        =MDY20              Climatization Turbine Control                          Klimatisierung Anlagensteuerung
        =MKA                                Power Generation System                                Stromerzeugungssystem
                        =MKA10              Power Generation System Overall                        Erzeugungssystem Übergeordnet
                        =MKA1n              Power Generation System n                              Erzeugungssystem n
                        =MKA20              Generator Cooling System                               Generator Kühlsystem 
=MS_                                        Transmission                                           Ableitung elektrischer Energie
        =MSC                                Generator Switching System                             Generatorschaltsystem
                        =MSC10              Generator Switching System Overall                     Generatorschaltsystem Übergeordnet
                        =MSC1n              Generator Switching System Generator n                 Generatorschaltsystem Generator n
                        =MSC19              Generator Switching  System Generator 9                Generatorschaltysytem Generator 9
        =MSE                                Converter System                                       Umrichtersystem
                        =MSE10              Converter System Overall                               Umrichtung Übergeordnet
                        =MSE1n              Converter System Generator n                           Umrichtung Generator n
                        =MSE20              Rectification System Overall                           Gleichrichtung Übergeordnet
                        =MSE2n              Rectification System Generator n                       Gleichrichtung Generator n
                        =MSE30              Inverter System Overall                                Wechselrichtung Übergeordnet
                        =MSE3n              Inverter System Generator n                            Wechselrichtung Generator n
                        =MSE40              Heating/Cooling Converter Systems                      Heiz-/Kühlsystem Umrichtung
        =MSS                                Compensation System                                    Kompensationssystem
                        =MSS10              Compensation System                                    Kompensationssystem
        =MST                                Generator Transformer System                           Maschinentransformatorsystem
                        =MST10              WTG MV-Transformation                                  WEA MS-Transformation
                        =MST1n              MV-Transformation Generator n                          MS-Transformation Generator n
                        =MST20              Cooling System MV-Transformation                       Kühlsystem MS-Transformation
=MU_                                        Common Systems for Wind Turbines                       Gemeinsame Systeme für Windenergieanlagen
        =MUD                                Nacelle                                                Maschinenhaus
                        =MUD10              Main Frame and Nacelle                                 Maschinenträger und Maschinenhaus
                        =MUD20              Cooling System Nacelle                                 Kühlsystem Maschinenhaus
        =MUR                                Common Cooling Systems                                 Gemeinsame Kühlsysteme
                        =MUR10              Cooling System Drive Train and Generation              Kühlsystem Antriebsstrang und Generation
                        =MUR20              Cooling System Converter and Generation                Kühlsystem Umrichtung und Generation
=MY_                                        Control and Protection                                 Steuer-, Regel-, Schutzeinrichtung
        =MYA                                Remote Monitoring System                               Fernüberwachungssystem
                        =MYA10               Remote Monitoring System                              Fernüberwachungssystem
=B_                                         Electr. Auxiliary Power Supply System                  Elektrisches Eigenbedarfssystem
        =BFA                                Low Voltage Electrical Main Supply System              Niederspannungs-Hauptstromversorgungssystem
                        =BFA11              LV Main Distribution 1                                 NS-Hauptverteilung 1
                        =BFA12              LV Main Distribution 2                                 NS-Hauptverteilung 2
                        =BFA13              UPS Distribution                                       USV-Verteilung
        =BSA                                Installation System                                    Einbausystem
                        =BSA10              LV Installationsystem                                  NS-Einbausystem
=CK_                                        Process Monitoring                                     Prozessüberwachung
        =CKA                                Fire Alarm System                                      Brandmeldesystem
                        =CKA10              Fire Alarm System                                      Brandmeldesystem
        =CKC                                Video Monitoring System                                Videoüberwachungssystem
                        =CKC10              Video Monitoring System                                Videoüberwachungssystem
        =CKJ                                Environmental Measurement System                       Umweltmesssystem
                        =CKJ10              Meteorological Measurement System                      Meteorologie Messsystem
                        =CKJ20              Geological Measurement System                          Geologie Messsystem
                        =CKJ30              Hydrological Measurement System                        Hydrologie Messsystem
                        =CKJ40              Flora Measurement System                               Flora Messsystem
                        =CKJ50              Fauna Measurement System                               Fauna Messsystem
        =UMD                                Tower System                                           Turmsystem
                        =UMD10              Tower System Overall                                   Turmsystem Übergeordnet
                        =UMD11              Tower System Top Section                               Turmsystem Top-Sektion
                        =UMDm[12;28]        Tower System Middle Section m[-11]                     Turmsystem Mittelsektion m[-11]
                        =UMD29              Tower System Bottom Section                            Turmsystem Turmfuß
                        =UMD40              Inner Support Structure Tower System                   Innere Tragstruktur Turmsystem
                        =UMD80              Foundation Structures                                  Fundamentstrukturen
                        =UMD81              Gravity Foundation                                     Schwergewicht Fundament
                        =UMD82              Steelwork Foundation                                   Stahlbau Fundament
        =UAB                                Transformer Station                                    Transformatorstation
                        =UAB10              Transformer Station                                    Transformatorstation
        =WBA                                Personnel Rescue Systems                               Personenrettungssysteme
                        =WBA11              Personnel Rescue System                                Personenrettungssystem
                        =WBA21              Offshore Personnel Rescue System                       Offshore Personenrettungssystem
=X_                                         Ancillary Systems                                      Nebensysteme
        =XAM                                Ventilation Systems                                    Lüftungssysteme
                        =XAM10              Air Conditioning                                       Luftaufbereitung
                        =XAM20              Air Circulation                                        Luftumwälzung
=XF_                                        Equipotential Bonding Systems                          Potenzialausgleichssysteme
        =XFB                                Equipotential Bonding / Earthing System                Potenzialausgleichs- / Erdungssystem
                        =XFB10              Equipotential Bonding / Earthing System                Potenzialausgleichs- / Erdungssystem
        =XFC                                Lightning Protection System                            Blitzschutzsystem
                        =XFC10              External Lightning Protection                          Äußerer Blitzschutz
        =XGM                                Fire Extinguishing Systems                             Feuerlöschsysteme
                        =XGM10              Manual Fire Extinguishing System                       Manuelles Feuerlöschsystem
                        =XGM20              Automatic Fire Extinguishing System Overall            Automatisches Feuerlöschsystem Übergeordnet
                        =XGM2n              Automatic Fire Extinguishing System n                  Automatisches Feuerlöschsystem n
        =XMM                                Lifting Gears                                          Hebezeuge
                        =XMM11              Crane Nacelle                                          Kran Maschinenhaus
                        =XMM12              Auxiliary Crane Nacelle                                Hilfskran Maschinenhaus
                        =XMM13              Exterior Crane Service Plattform Offshore              Außenkran Service-Plattform Offshore
                        =XMM14              Auxiliary Crane Service Plattform Offshore             Hilfskran Service-Plattform Offshore
                        =XMM21              Lifting Gear 1 for Personnel                           Hebezug 1 für Personen 
                                            (e.g. Access Lift, Climbing Assist Unit)               z. B. Befahranlage / Aufstiegshilfe)
        =XSD                                Obstacle Warning Systems                               Hindernis-Kennzeichnungssysteme
                        =XSD10              Obstacle Warning Systems Aviation                      Hinderniskennzeichnung Luftfahrt
                        =XSD20              Obstacle Warning Systems Marine                        Hinderniskennzeichnung Seefahrt
                        =XSD30              Sonar System                                           Sonarsystem
        =YAA                                Telephone System                                       Fernsprechsystem
                        =YAA10              Telephone System                                       Fernsprechsystem
