@startuml antlr_errorlistener

!include style
left to right direction

package "ATNLR Library" {
    interface ErrorListener <<interface>> interfaceColor {
        SyntaxError(\n\trecognizer : Recognizer,\n\toffendingSymbol : interface{},\n\tline : int,\n\tcolumn : int,\n\tmsg : string,\n\te : RecognitionException\n) : void
        ReportAmbiguity(...) : void
        ReportAttemptingFullContext(...) : void
        ReportContextSensitivity(...) : void
    }

    class DefaultErrorListener <<struct>> {
    }

    ErrorListener <|.. DefaultErrorListener
}

package logic/parser {
    class errorListener <<struct>> {
        SyntaxError(...) : void {override}
    }

    DefaultErrorListener <|-- errorListener
}

@enduml
