@startuml error_hint

!include style

package "logic/parser" as parserPkg {
    class ErrorInformation <<struct>> {
        Designation : string
        Message : string
        Index : int
        Text : string
        Type : int
        Suggestions : string[]
    }
}

package "logic/designation/denomination" as denominationPkg {
    class HintDenomination <<struct>> {
        + Name : Denomination
        + BreakdownLevels : BreakdownLevel[]
    }

    class Denomination <<struct>> {
        + DE : string
        + EN : string
    }

    class BreakdownLevel <<struct>> {
        + BL : int
        + Denomination : Denomination
        + DataPositions : string[]
        + Explanations : Explanation[]
        + Optional : bool
    }

    class Explanation <<struct>> {
        + Start : int
        + End : int
        + DE : string
        + EN : string
    }

    HintDenomination o-- Denomination
    HintDenomination o-- BreakdownLevel
    BreakdownLevel o- Denomination
    Explanation -o BreakdownLevel
}

@enduml
